{

	"tests": [{
			"test": [{
					"text": "Почему попытки бросить курить часто бывают безуспешными?",
					"id": 101,
					"explanation": "Нет никаких объективных причин, почему вы не можете бросить курить. Если вам кажется, что такие причины есть, то с вероятность 99% они надуманные. Вы абсолютно ничем не хуже миллионов людей, у который всё получилось. Настоящая причина в другом - вы просто выбирали неверный подход.",

					"answers": [{
							"correct": true,
							"text": "Выбран неверный подход для избавления от зависимости"
						},
						{
							"correct": false,
							"text": "Окружение и обстоятельства не позволяют бросить курить"
						},
						{
							"correct": false,
							"text": "Недостаточно силы воли, дисциплины и решимости"
						},
						{
							"correct": false,
							"text": "Курение - это зависимость, не всем дано с ней покончить"

						}
					]
				},
				{
					"text": "Что вызывает зависимость?",
					"id": 102,
					"explanation": "У курильщика развивается зависимость не только от никотина, но и от химических веществ, которые добавляют в сигареты производители табака и образуются в сигарном дыме. А зависимость на уровне психики гораздо сильнее, чем на уровне тела. За долгие годы курения ваш мозг построил и укрепил соответствующие нейронные связи. Чтобы выстроить другие, тоже потребуется время.",

					"answers": [{
							"correct": false,
							"text": "Никотин"
						},
						{
							"correct": false,
							"text": "Вещества, которые содержатся в дыме"

						},
						{
							"correct": false,
							"text": "Психологические факторы курения"
						},
						{
							"correct": true,
							"text": "Всё, что перечислено выше"
						}
					]
				},
				{
					"text": "За что отвечает дофамин?",
					"id": 103,
					"explanation": "Дофамин - это нейромедиатор, который отвечает за мотивацию, интерес и стремление к цели, а также за удовольствие от вознаграждения.",

					"answers": [{
							"correct": true,
							"text": "За обучение и мотивацию"
						},
						{
							"correct": false,
							"text": "За восприимчивость к стрессу"
						},
						{
							"correct": false,
							"text": "За принятие долгосрочных решений"
						},
						{
							"correct": false,
							"text": "За скорость обмена веществ"
						}
					]
				},
				{
					"text": "Как изменить отношение мозга к курению?",
					"id": 104,
					"explanation": "Мозг оценивает эффективность действия по формуле: мгновенный эффект + (отдача>затрат). Чтобы изменить оценку курения, можно воздействовать на разные части этой формулы, а также вовсе заменить курение другим источником дофамина.",

					"answers": [{
							"correct": false,
							"text": "Увеличить затраты энергии на курение"
						},
						{
							"correct": false,
							"text": "Показать мозгу негативные последствия"
						},
						{
							"correct": false,
							"text": "Использовать более здоровые источники дофамина"
						},
						{
							"correct": true,
							"text": "Все перечисленные пункты"
						}
					]
				},
				{
					"text": "Какой принцип обезьянки сформулирован неправильно?",
					"id": 105,
					"explanation": "На самом деле обезьянке важно ощущать принадлежность к какой-то стае. Для нее это означает высокий шанс на выживание. Обезьянка с готовностью принимает атрибуты и шаблоны поведения стаи и следует им, даже если такое поведение не идет ей на пользу.",

					"answers": [{
							"correct": false,
							"text": "Обезьянка любит свободу и ненавидит запреты"
						},
						{
							"correct": false,
							"text": "Обезьянка не любит напрягаться без повода"
						},
						{
							"correct": false,
							"text": "Обезьянка любит все новое и веселое, интересное"
						},
						{
							"correct": true,
							"text": "Обезьянка не обращает внимание на чужое мнение"
						}
					]
				},
				{
					"text": "Какой запрет нужно поставить на время прохождения программы?",
					"id": 106,
					"explanation": "Обезьянка восстает против любых попыток ограничить или ущемить её в чём-либо. Поэтому как только запрещаешь себе сигареты, обезьянка начинает сопротивляться, мысль о сигаретах становиться навязчивой. Запрет не работает, зато работает отказ от сигарет. Стремиться нужно к тому, чтобы по доброй воле перехотеть курить. К такому состоянию можно прийти, если 'запретить себе запрещать'.",

					"answers": [{
							"correct": false,
							"text": "Запрет на курение"
						},
						{
							"correct": false,
							"text": "Запрет на курение в затяг"
						},
						{
							"correct": true,
							"text": "Запрет на запреты"
						},
						{
							"correct": false,
							"text": "Запретить споры с профессором"
						}
					]
				},
				{
					"text": "Почему силовой подход не по душе обезьянке?",
					"id": 107,
					"explanation": "Силовой подход не учитывает принципы обезьянки, которая не терпит насилия и принуждения. Профессор, конечно, может заставить её раз-другой потерпеть, но если регулярно заниматься принуждением обезьянки, то, в конце-концов, она взбунтуется, и все усилия пойдут прахом.",

					"answers": [{
							"correct": false,
							"text": "Потому что она слабая и быстро устает"
						},
						{
							"correct": false,
							"text": "Потому что она не верит в мотивацию и обещания"
						},
						{
							"correct": true,
							"text": "Потому что она не терпит, когда её ограничивают или заставляют"
						},
						{
							"correct": false,
							"text": "Потому что она равнодушна к катастрофам и подвигам"
						}
					]
				},
				{
					"text": "В какой ситуации вряд ли получится отказаться от сигарет?",
					"id": 108,
					"explanation": "Бесполезно отказываться от сигарет, если сами вы не считаете курение действительно вредной и опасной привычкой и если вам с сигаретами живется неплохо. Без вашей решимости обезьянка никогда не смирится с отказом. И поэтому бесполезно бросать курить по чужой указке.",

					"answers": [{
							"correct": true,
							"text": "Родной человек недоволен и хочет, чтобы я бросил курить"
						},
						{
							"correct": false,
							"text": "Пришли плохие результаты медицинского обследования"
						},
						{
							"correct": false,
							"text": "Позвали на должность моей мечты в компанию, где не курят"
						},
						{
							"correct": false,
							"text": "Я созрел и принял окончательное решение перестать курить"
						}
					]
				},
				{
					"text": "В какой ситуации вряд ли получится отказаться от сигарет?",
					"id": 109,
					"explanation": "Чтобы по-настоящему поверить в то, что пора что-то менять, важно - не спешить, не бросать курить без подготовки, а дать себе время и начать постепенно раскачивать,'эмоциональный маятник '. То есть чаще думать о том, что хорошего произойдет в вашей жизни, если вы бросите курить. Рисуйте яркие образы, не жалейте красок.",

					"answers": [{
							"correct": false,
							"text": "Раскурить трубку мира"
						},
						{
							"correct": true,
							"text": "Раскачать эмоциональный маятник"
						},
						{
							"correct": false,
							"text": "Повесить эмоциональные гири"
						},
						{
							"correct": false,
							"text": "Забить решительный болт"
						}
					]
				},
				{
					"text": "Какой признак говорит о наличии зависимости?",
					"id": 110,
					"explanation": "Толерантность - это признак наличия зависимости. Чтобы достичь желаемого эффекта, человеку приходится повышать дозу, то есть курить больше, чаще или переходить на более крепкие сигареты.",

					"answers": [{
							"correct": true,
							"text": "Раньше я курил 3-4 сигареты в день, а теперь - по целой пачке"
						},
						{
							"correct": false,
							"text": "Я всегда курю с кем-нибудь за компанию"
						},
						{
							"correct": false,
							"text": "Я испытываю чувство стыда, когда кто-то видит меня с сигаретой"
						},
						{
							"correct": false,
							"text": "Я курю всегда в одно и то же время"
						}
					]
				}
			]
		},


		{
			"test": [{
					"text": "По какому алгоритму работает курение и любое повторяющееся действие?",
					"id": 201,
					"explanation": "Алгоритм складывается по схеме:\n  - что-то случилось(триггер);\n - наше состояние изменилось(состояние);\n - чтобы вернуться в норму, мы курим(действие);\n - наше состояние нормализуется(награда).",

					"answers": [{
							"correct": false,
							"text": "Триггер - действие - награда"
						},
						{
							"correct": false,
							"text": "Триггер - действие - состояние - награда"
						},
						{
							"correct": true,
							"text": "Триггер - состояние - действие - награда"
						},
						{
							"correct": false,
							"text": "Действие - состояние - триггер - награда"
						}
					]
				},
				{
					"text": "Что такое триггер?",
					"id": 202,
					"explanation": "Триггер — это событие, которое меняет наше состояние, то есть нарушает равновесие. Такое событие может быть и внешним и внутренним. Никотиновый голод тоже меняет состояние.",

					"answers": [{
							"correct": false,
							"text": "Внешнее событие, которое провоцирует желание курить"
						},
						{
							"correct": false,
							"text": "Внутренне событие, которые вызывает желание курить"
						},
						{
							"correct": false,
							"text": "Никотиновый голод"
						},
						{
							"correct": true,
							"text": "Любое событие, которое выводит наше состояние из равновесия"
						}
					]
				},
				{
					"text": "Какие награды от курения наиболее ценные?",
					"id": 203,
					"explanation": "У каждого курильщика свой список наград. И в нем могут быть одновременно социальные, психологические, физические награды и т. д. Поэтому мозг так привязывается к курению.",

					"answers": [{
							"correct": false,
							"text": "Легче общаться и выстраивать отношения"
						},
						{
							"correct": false,
							"text": "Легче снять напряжение в стрессовой ситуации"
						},
						{
							"correct": false,
							"text": "Острее переживаются принятые моменты жизни"
						},
						{
							"correct": true,
							"text": "Ценность наград для каждого человека своя"
						}
					]
				},
				{
					"text": "Какое из этих убеждений о курении — миф?",
					"id": 204,
					"explanation": "Никотин вмешивается в систему вознаграждения. Он активирует её, вызывая всплеск дофамина, который лишь обещает удовольствие. Поэтому, когда вы курите, появляется чувство, что вот-вот почувствуете себя прекрасно, но на деле это никогда не происходит. А если курить постоянно, система вознаграждения перестаёт работать нормально.",

					"answers": [{
							"correct": false,
							"text": "Никогда не поздно бросить курить"
						},
						{
							"correct": true,
							"text": "Курение спасает от скуки и дарит удовольствие"
						},
						{
							"correct": false,
							"text": "Сигареты вызывают стресс, а не убирают его"
						},
						{
							"correct": false,
							"text": "Курение на несколько минут повышает работоспособность"
						}
					]
				},
				{
					"text": "Как восстановить дофаминовые рецепторы?",
					"id": 205,
					"explanation": "Для восстановления дофаминовой системы полезно сократить потребление больших объемов информации и прочих ярких раздражителей и стимулов, которыми насыщены соцсети.",

					"answers": [{
							"correct": false,
							"text": "Пять раз в день съедать что-нибудь сладкое"
						},
						{
							"correct": false,
							"text": "Каждый вечер смотреть художественное кино"
						},
						{
							"correct": false,
							"text": "Избегать перегрева и переохлаждения"
						},
						{
							"correct": true,
							"text": "Сократить время, проведенное в соцсетях"
						}
					]
				},
				{
					"text": "Какое из этих убеждений о курении правдивое?",
					"id": 206,
					"explanation": "У вас есть близкие, родные, друзья. Они любят вас и хотят, чтобы вы жили как можно дольше и были в хорошей форме. У вас будет больше возможностей сделать что-то для благополучия близких, если выберете активный, здоровый образ жизни и освободитесь от сигарет.",

					"answers": [{
							"correct": false,
							"text": "С помощью сигарет мне проще решать проблемы"
						},
						{
							"correct": false,
							"text": "Я не способен бросить курить"
						},
						{
							"correct": true,
							"text": "То, что я курю, влияет не только на мою жизнь"
						},
						{
							"correct": false,
							"text": "Если куришь уже 30 лет, уже нет смысла бросать"
						}
					]
				},
				{
					"text": "Зачем выбирать альтернативное действие курению?",
					"id": 207,
					"explanation": "Чтобы отвязаться от сигарет, нужно поменять курение на другое действие. Причем такое, которое будет давать те же награды, что и сигареты, то есть возвращать нас в то же состояние, которое было до того, как мы захотели покурить.",

					"answers": [{
							"correct": false,
							"text": "Чтобы легче переживать периоды, когда нельзя курить, например, перелеты"
						},
						{
							"correct": true,
							"text": "Чтобы возвращаться в равновесие, когда сработал триггер для курения и наше состояние изменилось"
						},
						{
							"correct": false,
							"text": "Чтобы расхотелось получить награду, которую дает курение"
						},
						{
							"correct": false,
							"text": "Чтобы выполнять действие во время курения и усилить эффект награды"
						}
					]
				},
				{
					"text": "Какой критерий не надо учитывать, выбирая альтернативное действие?",
					"id": 208,
					"explanation": "Удачная альтернатива занимает не более пяти минут, ее можно легко выполнить в любой момент, и она не вызывает у нас никакого сопротивления. Как-то особенно дышать при этом не обязательно.",

					"answers": [{
							"correct": false,
							"text": "Сколько времени занимает действие"
						},
						{
							"correct": false,
							"text": "Какие награды дает альтернатива"
						},
						{
							"correct": false,
							"text": "Хочется ли выполнить действие"
						},
						{
							"correct": true,
							"text": "Связано ли действие с дыханием"
						}
					]
				},
				{
					"text": "На каком этапе повторяющегося действия осознанность помогает изменить его?",
					"id": 209,
					"explanation": "Чем сильнее развита осознанность, тем больше зазор между триггером и состоянием. А значит, тем проще выбрать наиболее подходящую и здоровую реакцию в каждой конкретной ситуации. Осознанность способна «обезвредить» любой триггер. Вы просто не будете погружаться в дискомфортное состояние. Соответственно, вам не придётся совершать какое-то действие, чтобы вернуться в норму. А значит, можно справиться с зависимостью.",

					"answers": [{
							"correct": false,
							"text": "Осознанность - триггер - состояние - действие"
						},
						{
							"correct": true,
							"text": "Триггер - осознанность - состояние - действие - награда"
						},
						{
							"correct": false,
							"text": "Триггер - состояние - осознанность - действие - награда"
						},
						{
							"correct": false,
							"text": "Триггер - состояние - действие - осознанность - награда"
						}
					]
				},
				{
					"text": "Какое занятие вызывает выброс серотонина?",
					"id": 210,
					"explanation": "Серотонин называют гормоном хорошего настроения. Он вырабатывается при таких занятиях, как общение с близкими, творчество, танцы, игровые виды спорта, молитва или медитация, чтение, массаж, прогулка, йога и т. д.",

					"answers": [{
							"correct": false,
							"text": "Чтение новостей в соцсетях"
						},
						{
							"correct": false,
							"text": "Бесплатная дегустация тортов"
						},
						{
							"correct": true,
							"text": "Игра с друзьями в волейбол"
						},
						{
							"correct": false,
							"text": "Изучение меню в ресторане"
						}
					]
				}

			]
		},
		{
			"test": [{
					"text": "Как называется эффект, когда одна перемена тянет за собой ещё несколько?",
					"id": 301,
					"explanation": "Отказ от сигарет — это только начало. Скорее всего, вместе с ним придёт множество других позитивных перемен. Это называется «эффект домино». Одно изменение потянет за собой другое, вслед за одной мелкой привычкой захочется внедрить и вторую. Так, со временем весь образ жизни изменится в лучшую сторону.",

					"answers": [{
							"correct": false,
							"text": "Спецэффект"
						},
						{
							"correct": false,
							"text": "Эффект плотины"
						},
						{
							"correct": false,
							"text": "Эффект казино"
						},
						{
							"correct": true,
							"text": "Эффект домино"
						}
					]
				},
				{
					"text": "В чем суть теории доминанты Ухтомского?",
					"id": 302,
					"explanation": "Суть учения о доминанте в том, что если в мозге формируется крупный очаг возбуждения, то он подавляет все остальные очаги. Любые стимулы и раздражители будут этот очаг только усиливать. Крупный очаг возбуждения может быть только один, поэтому он и называется доминантой. Любые попытки сопротивляться и бороться с сильным желанием съесть десерт будут его только усиливать.",

					"answers": [{
							"correct": true,
							"text": "Доминирующий очаг возбуждения усиливается от любых стимулов"
						},
						{
							"correct": false,
							"text": "Доминирующий очаг возбуждения усиливает все остальные желания"
						},
						{
							"correct": false,
							"text": "Доминирующий очаг возбуждения теряет силу с течением времени"
						},
						{
							"correct": false,
							"text": "Доминирующий очаг возбуждения нарастает, если его игнорировать"
						}
					]
				},
				{
					"text": "Что НЕ стоит делать, когда возникло сильное желание покурить?",
					"id": 303,
					"explanation": "Когда нестерпимо хочется курить, сопротивляться желанию бесполезно, оно от этого только усилится. Строго-настрого запрещать себе курить нет смысла. Убеждать себя тоже бесполезно, в такие моменты на обезьянку это не действует.",

					"answers": [{
							"correct": false,
							"text": "Переключить внимание"
						},
						{
							"correct": false,
							"text": "Наблюдать за желанием"
						},
						{
							"correct": false,
							"text": "Глубоко и медленно дышать"
						},
						{
							"correct": true,
							"text": "Запрещать себе курить"
						}
					]
				},
				{
					"text": "Что означает синдром отмены (неприятные ощущения после отказа от сигарет)?",
					"id": 304,
					"explanation": "Синдром отмены означает, что организм зафиксировал сильное снижение уровня никотина и запустил процесс масштабной очистки от накопившихся токсинов.",

					"answers": [{
							"correct": true,
							"text": "Организм запустил глобальную чистку"
						},
						{
							"correct": false,
							"text": "Выбран неверны подход к отказу от сигарет"
						},
						{
							"correct": false,
							"text": "Слишком большой стаж курения"
						},
						{
							"correct": false,
							"text": "В организме недостаток магния и железа"
						}
					]
				},
				{
					"text": "Какой принцип поможет пережить синдром отмены?",
					"id": 305,
					"explanation": "В пустыне песок везде: забивается во все складки, хрустит на зубах, летит в глаза. И единственное верное решение — желать больше песка. Тогда он перестанет раздражать, ведь сколько бы его ни было — всё мало. Тот же принцип можно использовать после отказа от сигарет. Пусть организм очищается и восстанавливается на полную катушку, это всё ради вашего блага, вы готовы к этому, даёшь больше песка!",

					"answers": [{
							"correct": false,
							"text": "'Я это заслужил'"
						},
						{
							"correct": false,
							"text": "'Все, что нас не убивает, делает нас сильнее'"
						},
						{
							"correct": true,
							"text": "'Больше песка!'"
						},
						{
							"correct": false,
							"text": "'Все или ничего'"
						}
					]
				},
				{
					"text": "Что нужно делать, чтобы проще было пережить синдром отмены?",
					"id": 306,
					"explanation": "Ваша задача — не испытывать себя, а максимально позаботиться о своем комфорте: помогать организму, поддерживать его, внедрить новые мелкие полезные привычки, поддерживать уровень энергии и облегчать восстановительные процессы.",

					"answers": [{
							"correct": false,
							"text": "Терпеть, не обращать внимание, вести прежний образ жизни"
						},
						{
							"correct": false,
							"text": "Усиливать синдром, ходить в курилку, специально себя мучить"
						},
						{
							"correct": true,
							"text": "Поддерживать организм с помощью полезных привычек"
						},
						{
							"correct": false,
							"text": "На пару неделю пуститься во все тяжкие с другими вредными привычками"
						}
					]
				},
				{
					"text": "Зачем нужна практика «тотальное наслаждение»?",
					"id": 307,
					"explanation": "Возможно, не все награды от курения удалось выявить в уроке «Дымчатые награды» и не все убеждения были отработаны в уроке «Разрушители мифов». Техника тотального наслаждения поможет мозгу изменить свое представление о процессе курения: награды будут пересмотрены и резвеются последние иллюзии.",

					"answers": [{
							"correct": false,
							"text": "Чтобы максимально усложнить процесс курения"
						},
						{
							"correct": false,
							"text": "Чтобы мозг пополнил коллекцию приятных воспоминаний"
						},
						{
							"correct": false,
							"text": "Чтобы вернуть обезьянке долги, скопившиеся за месяц"
						},
						{
							"correct": true,
							"text": "Чтобы переоценить и актуализировать награды"
						}
					]
				},
				{
					"text": "Что делать, если во время выполнения практики «тотальное наслаждение» расхотелось курить?",
					"id": 308,
					"explanation": "Эксперимент с тотальным наслаждением нужно довести до конца, то есть докурить сигарету, даже если не хочется и стало неприятно. Именно в тот самый момент, когда возникнут неприятные ощущения, мозг свяжет их с сигаретой. Так ему придется перезаписать свои данные. Он запомнит, что курение не доставляет удовольствие и не даёт тех наград, на которые вы рассчитывали. А значит, в следующий раз мозг уже не будет с прежней настойчивостью рекомендовать вам курение как способ получить ту или иную награду.",

					"answers": [{
							"correct": false,
							"text": "Это невозможно, желание курить только усиливается"
						},
						{
							"correct": false,
							"text": "Сразу же потушить сигарету"
						},
						{
							"correct": true,
							"text": "Докурить сигарету, несмотря на неприятные ощущения"
						},
						{
							"correct": false,
							"text": "Курить сигареты одну за другой, пока не затошнит"
						}
					]
				},
				{
					"text": "Что НЕ стоит делать после того, как выкурена последняя сигарета?",
					"id": 309,
					"explanation": "После прощальной церемонии дома не должно остаться никаких атрибутов курения. Окурок последней сигареты тоже нужно выбросить сразу после отказа.",

					"answers": [{
							"correct": true,
							"text": "Сохранить пепельницу и зажигалку на память"
						},
						{
							"correct": false,
							"text": "Порадоваться и похвалить себя"
						},
						{
							"correct": false,
							"text": "Завести копилку"
						},
						{
							"correct": false,
							"text": "Уехать в отпуск на 2 недели"
						}
					]
				},
				{
					"text": "Какое действие или условие НЕ подходит для прощальной церемонии?",
					"id": 310,

					"explanation": "Прощальную сигарету нужно выкурить. Причем выкурить осознанно, с чувством, медленно, в одиночестве.",

					"answers": [{
							"correct": true,
							"text": "Прощальная сигарета должна остаться НЕ выкуренной"
						},
						{
							"correct": false,
							"text": "Поблагодарить сигареты за все хорошее, что было"
						},
						{
							"correct": false,
							"text": "Выбрать обстановку, где можно побыть одному, в молчании"
						},
						{
							"correct": false,
							"text": "Собрать и выбросить все атрибуты курения"
						}
					]
				}

			]
		}
	]
}